zone D:

TM : 
0.00941635 0.000905398 -8.79079e-006

0.00163763 -0.048195 0.00137097

-7.99325 40.6212 1


zone G:
TM : 
0.00884489 0.00128114 -5.45757e-005

0.0054073 -0.0461883 0.00127873

-4.64777 38.548 1